{
  "activityType": ["3558784", "3558781", "3558778", "3558776", "3558773", "3558765"],
  "creditAmount": [
    "2 External CPD",
    "1.5 External CPD",
    "1 External CPD",
    "0.75 External CPD",
    "0.5 External CPD",
    "0.25 External CPD"
  ],
  "creditType": ["Full", "Part"]
}
